<?xml version="1.0" encoding="utf-8"?>
<!-- Generator: Adobe Illustrator 25.3.0, SVG Export Plug-In . SVG Version: 6.00 Build 0)  -->
<svg version="1.1" id="Layer_1" xmlns="http://www.w3.org/2000/svg" xmlns:xlink="http://www.w3.org/1999/xlink" x="0px" y="0px"
	 viewBox="0 0 1366 768" style="enable-background:new 0 0 1366 768;" xml:space="preserve">
<style type="text/css">
	.st0{fill:#FAFAFA;}
	.st1{fill:#F7F7F7;}
	.st2{fill:#F8F8F8;}
	.st3{fill:#F9F9F9;}
	.st4{fill:#010101;}
	.st5{fill:#0B0B0B;}
	.st6{fill:#4B4B4B;}
	.st7{fill:#090909;}
</style>
<g>
	<g>
		<path d="M475.49,128.11c-1.06,1.68-2.19,2.71-2.38,3.9c-1.18,7.25-6.12,7.29-12,7.28c-68.12-0.16-136.24-0.1-204.36-0.1
			c-11.81,0-17.08,4.69-17.92,16.59c-0.37,5.25-0.54,10.67,0.33,15.82c1.02,6.05,4.88,8.59,11.03,8.64
			c8.78,0.07,17.57,0.02,26.6,0.02c0,4.47,0,8.37,0,12.67c-11.84,0-23.47,0.34-35.06-0.14c-5.84-0.25-10.33-4.06-12.64-9.4
			c-6.12-14.15-6.09-28.63,0.06-42.62c3.68-8.37,11.11-12.82,20.43-12.83c74.45-0.08,148.9-0.04,223.34-0.04
			C473.58,127.89,474.23,128,475.49,128.11z"/>
		<path d="M521.13,174.67c0-15.41,0-30.83,0-46.51c4.3,0,8.23,0,12.95,0c0,1.7,0,3.45,0,5.2c0.04,16.15,0.08,32.29,0.13,48.44
			c0.02,9.28-6.16,13.73-14.95,10.63c-6.97-2.46-10.72-8.07-13.57-14.48c-4.18-9.42-8.41-18.81-12.63-28.21
			c-0.52-1.15-1.12-2.27-2.32-4.66c0,16.74,0,32.07,0,47.63c-4.29,0-8.33,0-12.94,0c0-3.15,0-5.93,0-8.71
			c0.01-13.15-0.09-26.3,0.05-39.45c0.09-8.35,3.59-13.76,9.75-15.83c5.25-1.76,10.14-1.03,13.49,3.47
			c2.74,3.68,5.02,7.83,6.81,12.07c4.26,10.08,8.11,20.33,12.13,30.51C520.39,174.72,520.76,174.7,521.13,174.67z"/>
		<path d="M596.25,128.04c0,4.05,0,7.67,0,11.87c-3.63,0-7.08-0.22-10.48,0.05c-7.11,0.55-14.23,1.11-21.26,2.23
			c-1.87,0.3-3.41,2.65-5.1,4.05c1.58,1.74,2.9,4.56,4.79,5.03c5.76,1.42,11.71,2.18,17.64,2.7c4.61,0.41,9.29,0.08,14.33,0.08
			c0,4.18,0,8.22,0,12.62c-7.37,0-14.5-0.17-21.6,0.07c-3.94,0.13-7.98,0.53-11.74,1.62c-1.64,0.47-3.68,2.94-3.72,4.56
			c-0.05,1.55,1.99,4.16,3.57,4.58c5.91,1.55,11.96,2.7,18.03,3.38c4.57,0.52,9.25,0.1,14.2,0.1c0,4.24,0,7.99,0,12.4
			c-13.72,0.12-27.57,1.91-40.51-4.46c-11.87-5.84-12.31-20.64-1.04-28.29c-10.79-5.27-10.63-24.78,3.33-29.67
			c3.89-1.36,8.01-2.6,12.07-2.79C577.71,127.75,586.7,128.04,596.25,128.04z"/>
		<path d="M617.21,141.77c-5.69,0-10.61,0-15.91,0c0-4.64,0-8.87,0-13.49c14.93,0,29.97,0,45.38,0c0,4.13,0,8.37,0,13.26
			c-4.92,0-9.97,0-15.45,0c0,17.7,0,34.77,0,52.21c-4.82,0-9.19,0-14.02,0C617.21,176.7,617.21,159.64,617.21,141.77z"/>
		<path d="M421.84,167.91c-0.03-13.31,10.9-23.9,24.76-23.97c14.05-0.08,25.42,10.71,25.33,24.03
			c-0.09,13.05-11.47,23.85-25.13,23.85C433.07,191.81,421.87,181.08,421.84,167.91z M446.66,182.11
			c8.26,0.07,15.08-6.19,15.26-14.01c0.19-7.92-6.84-14.71-15.18-14.67c-8.27,0.04-14.87,6.39-14.89,14.33
			C431.82,175.7,438.37,182.04,446.66,182.11z"/>
		<path d="M284.79,145.96c3.19,0,6.11,0,9.59,0c0,6.34,0,12.41,0,18.76c5.78,0,11,0,16.75,0c0-6.24,0-12.31,0-18.7
			c3.07,0,5.61,0,8.43,0c0,15.53,0,30.77,0,46.45c-2.72,0-5.4,0-8.66,0c0-6.11,0-12.18,0-18.58c-5.77,0-10.98,0-16.65,0
			c0,6.36,0,12.45,0,18.91c-3.33,0-6.22,0-9.47,0C284.79,177.24,284.79,161.71,284.79,145.96z"/>
		<path d="M374.4,191.58c-5.58,0.72-10.51,1.75-11.73-5.3c-0.13-0.73-2.38-1.45-3.68-1.53c-3.49-0.21-7.01,0.12-10.49-0.12
			c-4.59-0.32-7.97,0.13-10.28,5.31c-0.87,1.94-6.16,1.91-10.89,3.16c1.59-4.48,2.6-7.37,3.65-10.24c3.29-9.07,6.59-18.13,9.9-27.2
			c0.4-1.09,0.54-2.49,1.31-3.2c2.8-2.61,5.49-6.34,8.82-7.13c4.45-1.05,6.98,3.5,8.44,7.15
			C364.57,165.26,369.31,178.2,374.4,191.58z M342.66,174.75c6.03,0,11.29,0,17.55,0c-2.71-6.67-5.2-12.79-8.04-19.8
			C345.74,160.98,345.13,167.9,342.66,174.75z"/>
		<path d="M415.96,177.27c0,2.61-0.3,4.48,0.06,6.21c1.22,5.91-2.13,7.9-7.04,9.1c-10.34,2.54-21.47-1.47-27.35-10.08
			c-5.52-8.09-5.39-18.81,0.34-26.7c6.24-8.61,17.69-12.26,28.08-9.24c4.17,1.21,6.85,2.97,5.98,7.91
			c-0.36,2.06-0.06,4.24-0.06,7.38c-4.68-4.85-9.55-8.02-15.47-6.52c-3.5,0.89-7.19,2.9-9.68,5.48c-4.95,5.13-4.19,13.4,0.92,18.5
			C398.21,185.8,406.54,185.3,415.96,177.27z"/>
	</g>
</g>
<g>
	<g>
		<path d="M359.89,479.09c-65.77-0.01-119-53.43-118.96-119.38c0.05-65.35,53.7-118.75,119.24-118.69
			c66.05,0.06,119.01,53.5,118.9,119.96C478.96,426.08,425.46,479.1,359.89,479.09z M421.92,331.03
			c-16.02,0-26.21,10.61-26.36,27.44c-0.15,17.38,10.36,28.61,26.9,28.73c14.63,0.11,25.38-12.33,25.36-29.36
			C447.81,341.83,437.37,331.03,421.92,331.03z M388.35,348.68c1.37-7.95-0.4-12.31-6.13-14.46c-11.29-4.23-22.14-3.06-31.38,4.93
			c-8.95,7.74-12.74,17.85-10.07,29.62c3.14,13.84,15.78,21.59,32.37,20.37c12.16-0.89,16.59-5.57,16.72-17.67
			c0.11-10.08-3.82-12.94-13.39-10.11c0.17,3.89,0.67,7.71,0.35,11.46c-0.13,1.53-1.75,3.73-3.18,4.23
			c-8.06,2.83-17.21-3-19.28-11.94c-2.3-9.97,2.76-18.94,11.53-20.41C373.62,343.43,381.11,343.81,388.35,348.68z M301.67,374.12
			c-2.73,0.4-5.18,0.96-7.64,1.08c-7.43,0.35-10.04-2.04-10.35-9.4c-0.15-3.49-0.08-6.99-0.1-10.48
			c-0.08-10.29-0.08-10.29,9.97-10.79c8.26-0.41,10.05-2.94,7.65-11.53c-5.46,0-11.07,0-17.16,0c-0.42-4.24-0.8-8.06-1.18-11.82
			c-7.79,0.37-12.07,4.52-12.14,11.53c-0.12,12.32-0.03,24.63-0.16,36.95c-0.15,13.76,12.29,18.97,22.13,17.6
			C300.74,386.14,302.88,382.69,301.67,374.12z M426.37,396.94c-9.26,12.51-21.31,17.78-35.66,18.57
			c-15.11,0.83-26.21-6.41-35.79-18.44c-1.92,8.88,0.2,15.44,5.77,20.65c15.82,14.8,36.6,16.77,55.06,5.25
			C424.74,417.35,428.57,407.88,426.37,396.94z M335.5,376.19c-9.38-0.45-10.23-1.37-10.25-10.77c-0.01-4.32,0.02-8.64,0-12.96
			c-0.02-3.82,0.13-7.66-0.18-11.45c-0.36-4.43-3.29-6.54-7.77-6.65c-5.12-0.12-4.9,3.4-4.93,6.76c-0.09,10.13-0.13,20.27-0.16,30.4
			c-0.02,10,3.83,14.33,13.67,15.46C332.76,387.76,336.72,383.48,335.5,376.19z M398.9,324.79c20.69-13.13,23.06-13.13,47.45-0.07
			c1.5-6.67-0.65-11.63-6.66-15.42c-10.43-6.57-26.59-6-35.79,1.26C399.16,314.29,397.27,319.66,398.9,324.79z M326.35,321.05
			c-0.12-4.31-3.42-7.4-7.8-7.29c-4.2,0.11-7.63,3.62-7.51,7.69c0.12,4.05,3.77,7.45,7.91,7.35
			C323.19,328.7,326.46,325.27,326.35,321.05z"/>
		<path d="M434.69,359.71c-1.04,2.88-1.77,6.93-3.81,10.17c-4.54,7.24-14.94,6.4-18.76-1.24c-2.81-5.62-3.31-11.48-1.01-17.4
			c2.25-5.8,5.96-8.5,11.13-8.32c5.04,0.17,8.96,3.25,10.82,8.84C433.79,353.93,434.01,356.27,434.69,359.71z"/>
	</g>
</g>
<g>
	<g>
		<path d="M632.41,236c3.07,0,5.58-0.13,8.07,0.04c2.37,0.16,4.73,0.6,7.09,0.97c2.36,0.36,4.67-0.23,7.18,0.77
			c2.01,0.81,4.64,0.77,7.01,1.15c8.65,1.38,17.07,3.61,25.28,6.61c6.8,2.48,13.64,4.94,19.98,8.49c7.1,3.97,14.1,8.07,20.65,12.99
			c5.9,4.43,11.5,9.15,16.39,14.62c4.87,5.44,9.26,11.22,13.11,17.51c3.7,6.04,6.33,12.43,8.36,19.05c1.23,4,2.27,8.15,2.68,12.47
			c0.31,3.19,0.85,6.38,0.78,9.6c-0.06,2.93,0.1,5.97-0.64,8.74c-0.71,2.64,0.71,5.58-1.33,7.93c0.73,2.36-0.85,4.35-1.09,6.58
			c-0.21,1.94-1.12,3.84-1.93,5.67c-1.74,3.95-3.4,7.96-5.48,11.72c-1.89,3.42-4.3,6.56-6.5,9.81c-1.33,1.96-2.61,3.95-4.06,5.81
			c-4.95,6.42-10.93,11.88-16.6,17.63c-5.92,6.02-12.34,11.41-19.2,16.35c-3.73,2.68-7.4,5.46-11.21,8.02
			c-4.78,3.22-9.69,6.22-14.82,8.87c-3.44,1.78-6.72,3.88-10.2,5.55c-6.8,3.27-13.71,6.32-20.77,9.01c-4.19,1.6-8.44,2.99-12.8,4.13
			c-4.05,1.05-8.02,2.44-12.15,3.23c-0.59,0.11-1.13,0.58-1.72,0.65c-3.36,0.38-6.89,0.15-10.04,1.15
			c-4.89,1.54-9.79,0.93-14.62,0.75c-6.26-0.22-12.45-1.56-17.91-4.92c-3.75-2.31-7.85-4.46-10.74-7.63
			c-2.73-2.99-5.63-6.17-6.35-10.84c-0.49-3.23-0.58-6.41-0.82-9.62c-0.61-8.23-0.55-16.58-3.96-24.35
			c-0.29-5.61-3.29-10.29-5.33-15.29c-1.1-2.71-2.33-5.38-3.72-7.95c-2.43-4.51-4.97-8.96-7.59-13.36
			c-2.63-4.43-5.45-8.74-8.1-13.15c-1.52-2.52-2.93-5.11-4.28-7.73c-3.04-5.93-5-12.27-7-18.6c-1.09-3.47-1.37-7.14-2.19-10.63
			c-1.07-4.59-0.72-9.09-0.8-13.63c-0.17-10.29,2.52-19.92,7.3-28.96c2.43-4.6,5.03-9.13,8.77-12.88c1.58-1.58,2.64-3.71,4.31-5.17
			c8.31-7.32,17.02-14.09,27.35-18.42c6.12-2.57,12.23-5.13,18.7-6.78c4.56-1.16,9.11-2.24,13.75-3.03
			c5.04-0.86,10.12-1.43,15.14-2.18C624.61,236.11,628.78,236.36,632.41,236z M669.12,336.88c0.22-5.98-1.78-11.24-5.15-15.94
			c-4.57-6.37-10.7-10.17-18.67-11.03c-2.29-0.25-4.46,0.01-6.67,0c-6.29-0.03-11.38,2.79-15.67,6.78c-7,6.51-10.38,16.2-7.81,26.77
			c0.89,3.65,3.11,7.09,5.24,10.27c1.87,2.8,4.84,4.62,7.82,6.29c3.21,1.8,6.47,3.25,10.26,2.97c3.93,2.64,7.81,0.27,11.44-0.61
			c4.42-1.07,8.16-3.82,11.53-7.17C666.63,350.06,668.44,343.77,669.12,336.88z M674,356.28c0,1.33,0,2.66,0,3.99
			c0.02,4.11,0.72,4.6,4.89,3.34c0.59-0.18,1.17-0.6,1.74-0.58c4.48,0.21,8.06-2.03,11.9-3.85c1.75-0.83,2.62-3.15,4.14-2.99
			c1.67,0.17,3.22,1.76,4.76,2.82c4.63,3.17,9.79,4.24,15.32,4.01c3.22-0.13,3.23-0.05,3.25-3.05c0.01-2.16,0-4.33,0-6.49
			c0-1.33,0.48-3.02-0.16-3.88c-0.53-0.71-2.39-0.36-3.63-0.63c-1.05-0.22-2.05-0.88-3.09-0.93c-3.29-0.16-5.65-2.23-6.96-4.63
			c-1.36-2.49-3-5.51-2.08-8.54c1.16-3.83,2.44-7.72,7.22-9.02c1.38-0.38,2.7-0.7,4.11-0.89c1.38-0.18,3.08-0.25,3.97-1.09
			c0.72-0.67,0.56-2.4,0.59-3.66c0.07-2.83-0.01-5.66,0.04-8.48c0.02-1.16-0.15-1.68-1.57-1.78c-7.28-0.53-13.74,1.55-19.62,5.72
			c-0.64,0.45-1.3,1.26-1.94,1.25c-0.85-0.01-1.98-0.44-2.48-1.08c-2.64-3.41-6.66-3.94-10.33-5.27c-3.21-1.17-6.47-0.34-9.7-0.45
			c-0.13,2.44-0.29,4.88-0.38,7.33c-0.06,1.5,0.04,3-0.02,4.49c-0.05,1.26-0.04,2.04,1.72,2.16c2.14,0.14,4.4,0.61,6.32,1.53
			c6.05,2.92,10.05,9.6,5.95,17.18c-0.52,0.97-1.12,2.08-2,2.63c-2.62,1.63-5.49,2.8-8.5,3.55c-1.08,0.27-2.68-0.14-3.22,0.48
			c-0.59,0.67-0.24,2.18-0.26,3.33C673.98,353.95,674,355.11,674,356.28z M563,319.03c0.49,3.02-0.99,6.72,1,10.08
			c0.17,6.08,2.65,11.51,5.07,16.87c1.92,4.25,4.45,8.2,7.19,12.05c1.37,1.92,3.02,3.25,4.76,4.3c2.23,1.35,4.97,2.55,7.67,1.39
			c3.37-1.45,6.23-3.56,8.38-6.78c3.22-4.8,6.12-9.68,7.97-15.2c1.14-3.38,2.47-6.64,3.13-10.22c0.47-2.55,0.09-5.31,0.97-7.55
			c1.6-4.08,0.48-8.11,0.8-12.13c0.17-2.05-0.8-2.81-2.96-2.84c-3.33-0.05-6.66,0.05-9.99-0.04c-1.39-0.04-2.26,0.14-2.01,1.82
			c0.36,2.35,0.82,4.71,0.98,7.08c0.42,6.45-1.17,12.65-3.15,18.67c-1.19,3.62-3.36,6.93-5.21,10.31c-0.83,1.51-1.48,1.34-2.74-0.47
			c-0.09-0.13-0.24-0.23-0.35-0.36c-2.66-2.97-3.77-6.74-5.27-10.3c-1.56-3.68-2.53-7.49-2.28-11.55c0.07-1.23,0.42-2.56-0.82-3.69
			c-0.34-0.32,0.41-1.71,0.47-2.62c0.18-2.44,0.26-4.89,0.38-7.34c-1.92-0.17-3.84-0.42-5.77-0.5c-1.99-0.09-4,0.06-5.99-0.05
			c-1.57-0.08-2.53,0.02-2.3,2.08C563.19,314.19,563,316.38,563,319.03z M651.78,374c-4.22,0-4.1,0.15-5.83,1.49
			c-2.31,1.78-3.71,4.25-3.76,6.86c-0.04,1.75,0.48,3.95,2.12,5.54c1.93,1.86,3.63,3.37,6.71,3.21c6.09-0.32,8.9-3.02,9.03-9.19
			c0.05-2.28-0.53-3.9-2.12-5.67C655.98,374.07,653.86,373.75,651.78,374z M710.17,373.96c-0.39,0.07-2.27-0.15-3.11,0.68
			c-1.64,1.62-4.22,2.63-4.21,5.73c0,0.81-1.08,1.9-0.84,3.07c0.43,2.07,2.76,5.27,4.86,6.96c1.49,1.19,3.16,0.48,4.74,0.58
			c7.4,0.49,9.94-7.22,7.62-12.34C717.57,374.98,714.83,373.92,710.17,373.96z M690,388.09c-0.01-2.73-2.42-10.57-4.23-12.72
			c-0.87-1.03-2.23-1.97-3.51-2.23c-0.74-0.15-1.85,1.05-2.66,1.79c-1.8,1.62-2.86,3.59-3.75,5.94c-1.17,3.1-0.57,6.1-0.81,9.14
			c-0.02,0.31,0.43,0.86,0.76,0.96c1.81,0.56,2.97-0.23,3.21-2.05c0.08-0.62,0.07-1.54,0.44-1.77c0.89-0.56,1.97-0.95,3.01-1.11
			c1.45-0.22,2.45,0.74,2.47,2.79c0.01,1.73,0.35,2.54,2.2,2.18c0.48-0.09,1-0.05,1.5-0.01c1.08,0.11,1.5-0.37,1.39-1.42
			C689.96,389.09,690,388.59,690,388.09z M662,382.58c0,2.17-0.03,4.33,0.02,6.5c0.02,0.71-0.46,1.9,0.85,1.87
			c1.04-0.02,2.81,0.8,3.02-0.63c0.36-2.41,2.5-2.35,3.81-3.2c0.96-0.62,1.71-1.09,2.34-2.1c1.53-2.44,1.5-5.3,0.68-7.5
			c-0.67-1.81-3.19-3.03-5.06-4.26c-0.71-0.46-1.93-0.38-2.87-0.23c-1.77,0.28-2.78,1.67-2.79,3.55
			C661.99,378.59,662,380.58,662,382.58z M614.62,373.61c-1.1,0.53-2.38,0.85-3.27,1.62c-2.11,1.83-2.02,5.99,0.19,7.72
			c1.18,0.92,2.68,1.59,4.14,1.97c1,0.26,1.71,0.63,1.24,1.47c-0.34,0.61-0.83,2.35-2.42,0.75c-0.76-0.77-2.28-0.85-3.48-1.1
			c-0.28-0.06-0.96,0.44-0.98,0.71c-0.11,2.08,3.24,5.48,5.23,5.2c1.19-0.17,2.51-0.55,3.42-1.27c0.94-0.74,1.68-1.93,2.12-3.06
			c0.81-2.09-0.16-3.64-1.74-5.14c-1.19-1.13-2.34-1.6-3.91-1.49c-1.7,0.11-1.17-1.25-1.14-2.09c0.03-1.33,1.18-0.95,1.86-0.84
			c0.73,0.11,1.36,0.76,2.09,0.9c0.57,0.12,1.64-0.01,1.76-0.32c0.27-0.67,0.4-1.77,0.02-2.27
			C618.56,374.79,617.17,373.28,614.62,373.61z M598,381.9c-0.03,5.94,3.13,9.17,8.3,9.16c1.8,0,1.78-0.88,1.7-2.12
			c-0.06-0.93,0.31-1.96-1.34-2c-0.83-0.02-1.63-0.78-2.45-1.21c0.54-0.35,1.32-0.57,1.57-1.07c0.84-1.66,0.03-3.14-1.79-3.65
			c-0.29-0.08-0.57-0.23-0.85-0.35c0.14-0.23,0.22-0.57,0.42-0.68c0.67-0.37,1.36-0.7,2.08-0.95c2.13-0.76,2.37-1.14,2.37-3.49
			c0-0.95-0.14-1.41-1.27-1.56c-2.62-0.35-4.26,1.79-6.51,2.31C600.03,378.47,596.7,379.51,598,381.9z M641,375.04
			c0-0.01,0-0.34,0-0.67c0.01-2.09-0.67-1-1.52-0.44c-0.46,0.31-1.3-0.02-1.94,0.08c-3.04,0.5-6.08,3.31-6.54,6.01
			c-0.66,3.88,0.78,7.16,3.99,8.97c0.93,0.52,1.91,0.98,2.9,1.38c2.62,1.05,3.18,1.08,3.18-1.74c0-2.11-0.58-2.82-2.7-2.71
			c-0.76,0.04-1.96-0.73-2.28-1.43c-1.02-2.23,0.43-6.09,2.81-6.3C641.36,377.96,640.98,376.79,641,375.04z M701,375.83
			c0.02-2.69,0.03-2.67-2.66-1.85c-0.45,0.14-1.04-0.12-1.47,0.04c-6.85,2.53-7.54,9.8-3.36,14.11c1.36,1.4,2.99,1.63,4.49,2.42
			c1.12,0.59,2.43,0.99,2.89-0.17c0.4-1.01,0.68-2.63-0.63-3.6c-0.48-0.36-1.08-0.57-1.66-0.77c-2.55-0.91-2.55-0.9-2.6-3.74
			c-0.05-3.21-0.06-3.62,2.59-4.15C700.27,377.78,701.47,377.8,701,375.83z"/>
		<path class="st0" d="M662,382.58c0-2-0.01-4,0-6c0.01-1.88,1.02-3.27,2.79-3.55c0.94-0.15,2.15-0.24,2.87,0.23
			c1.87,1.22,4.39,2.44,5.06,4.26c0.82,2.2,0.86,5.07-0.68,7.5c-0.63,1.01-1.38,1.48-2.34,2.1c-1.31,0.85-3.46,0.79-3.81,3.2
			c-0.21,1.43-1.98,0.6-3.02,0.63c-1.31,0.03-0.83-1.16-0.85-1.87C661.97,386.91,662,384.75,662,382.58z M666,380.97
			c0,0.49-0.09,1,0.02,1.46c0.13,0.54,0.43,1.05,0.66,1.57c0.66-0.38,1.67-0.63,1.89-1.19c0.39-0.98,0.62-2.25,0.32-3.22
			c-0.21-0.69-1.38-1.47-2.15-1.5c-1.18-0.05-0.63,1.19-0.74,1.9C665.96,380.31,666,380.64,666,380.97z"/>
		<path class="st1" d="M614.62,373.61c2.55-0.34,3.95,1.18,5.15,2.75c0.38,0.5,0.25,1.6-0.02,2.27c-0.12,0.31-1.19,0.43-1.76,0.32
			c-0.73-0.15-1.37-0.79-2.09-0.9c-0.67-0.1-1.82-0.48-1.86,0.84c-0.02,0.84-0.55,2.2,1.14,2.09c1.57-0.1,2.72,0.36,3.91,1.49
			c1.58,1.5,2.55,3.05,1.74,5.14c-0.44,1.14-1.18,2.33-2.12,3.06c-0.92,0.72-2.23,1.1-3.42,1.27c-1.99,0.29-5.34-3.11-5.23-5.2
			c0.01-0.27,0.7-0.77,0.98-0.71c1.2,0.25,2.72,0.33,3.48,1.1c1.58,1.6,2.07-0.14,2.42-0.75c0.47-0.84-0.24-1.21-1.24-1.47
			c-1.46-0.38-2.96-1.05-4.14-1.97c-2.21-1.73-2.3-5.9-0.19-7.72C612.23,374.46,613.51,374.14,614.62,373.61z"/>
		<path class="st2" d="M598,381.9c-1.3-2.38,2.02-3.43,2.24-5.63c2.25-0.52,3.89-2.66,6.51-2.31c1.13,0.15,1.27,0.61,1.27,1.56
			c0,2.35-0.24,2.73-2.37,3.49c-0.72,0.26-1.41,0.59-2.08,0.95c-0.2,0.11-0.28,0.45-0.42,0.68c0.28,0.12,0.55,0.27,0.85,0.35
			c1.83,0.51,2.63,2,1.79,3.65c-0.25,0.49-1.03,0.72-1.57,1.07c0.82,0.43,1.62,1.19,2.45,1.21c1.65,0.04,1.28,1.07,1.34,2
			c0.08,1.24,0.09,2.12-1.7,2.12C601.13,391.06,597.97,387.84,598,381.9z"/>
		<path class="st3" d="M641,375.04c-0.02,1.75,0.36,2.92-2.1,3.14c-2.38,0.21-3.83,4.07-2.81,6.3c0.32,0.71,1.52,1.47,2.28,1.43
			c2.12-0.11,2.7,0.61,2.7,2.71c0,2.82-0.57,2.8-3.18,1.74c-0.99-0.4-1.97-0.86-2.9-1.38c-3.21-1.81-4.65-5.09-3.99-8.97
			c0.46-2.69,3.5-5.51,6.54-6.01c0.64-0.11,1.48,0.22,1.94-0.08c0.85-0.56,1.53-1.65,1.52,0.44C641,374.7,641,375.03,641,375.04z"/>
		<path class="st3" d="M701,375.83c0.47,1.96-0.72,1.94-2.41,2.28c-2.65,0.53-2.64,0.94-2.59,4.15c0.04,2.85,0.05,2.84,2.6,3.74
			c0.57,0.2,1.18,0.42,1.66,0.77c1.31,0.97,1.03,2.59,0.63,3.6c-0.46,1.16-1.77,0.76-2.89,0.17c-1.5-0.79-3.13-1.02-4.49-2.42
			c-4.17-4.31-3.49-11.58,3.36-14.11c0.44-0.16,1.02,0.1,1.47-0.04C701.03,373.16,701.02,373.14,701,375.83z"/>
		<path class="st4" d="M641.84,325c3.13-0.62,5.77,0.91,8.12,3.42c2.23,2.38,4.12,5.03,3.93,8.29c-0.18,3.27-1.32,6.39-3.87,8.82
			c-2.43,2.31-5.47,3.43-8.52,3.36c-5.83-0.15-12.07-4.58-11.6-12.59c0.19-3.28,0.97-5.87,3.37-8.11
			C636.28,325.38,636.96,325,641.84,325z"/>
		<path class="st5" d="M656.08,382.91c-0.19,0.34-0.34,0.8-0.64,1.13c-0.78,0.85-1.59,1.69-2.45,2.46
			c-0.99,0.87-2.05,0.85-3.03-0.05c-0.73-0.67-1.39-1.42-2.12-2.09c-1.14-1.06-1.27-2.15-0.3-3.4c3.07-3.98,5.73-3.63,7.96,1.05
			C655.64,382.28,655.83,382.52,656.08,382.91z"/>
		<path class="st5" d="M715.87,382.63c-0.15,1.6-3.17,4.49-4.57,4.37c-2.02-0.17-4.39-2.71-4.3-4.63c0.05-1.17,3.15-4.42,4.16-4.37
			C712.62,378.08,715.99,381.39,715.87,382.63z"/>
		<path class="st6" d="M681.33,382c-0.14-0.05-0.7-0.24-1.27-0.44c0.3-0.67,0.54-1.37,0.91-1.99c0.24-0.4,0.66-0.7,1.01-1.04
			c0.72-0.7,0.93-0.39,1.05,0.45c0.06,0.42,0.4,0.8,0.64,1.18c0.71,1.1,0.51,1.76-0.89,1.84C682.46,382.02,682.13,382,681.33,382z"
			/>
		<path class="st7" d="M666,380.97c0-0.33-0.04-0.66,0.01-0.98c0.11-0.71-0.44-1.94,0.74-1.9c0.77,0.03,1.94,0.82,2.15,1.5
			c0.3,0.97,0.07,2.24-0.32,3.22c-0.22,0.56-1.23,0.8-1.89,1.19c-0.23-0.52-0.53-1.02-0.66-1.57
			C665.91,381.97,666,381.46,666,380.97z"/>
	</g>
</g>
<g>
	<g>
		<path d="M551.49,599.15c1.88-2.07,3.97-4,5.6-6.26c1.74-2.42,2.9-5.25,4.56-7.73c3.35-5,7.54-5.43,11.28-0.74
			c1.97,2.47,3.33,5.69,4.09,8.78c1,4.07,2.6,5.35,6.59,3.53c11.84-5.4,19.86-14.22,22.32-26.99c3.06-15.84,8.59-30.76,15.64-45.09
			c2.4-4.88,6.32-9.43,10.55-12.91c6.26-5.15,14.29-1.41,14.83,6.68c0.27,4.03-0.25,8.41-1.62,12.19
			c-6.69,18.47-14.07,36.57-25.67,52.77c-2.91,4.06-3.45,10.26-3.83,15.57c-0.5,7.1-0.15,14.33,0.54,21.43
			c0.44,4.52,2.35,8.88,3.26,13.38c0.42,2.04,0.02,4.25-0.01,6.38c-2-0.15-4.2,0.18-5.95-0.56c-4.76-1.99-7.66-5.88-8.69-10.88
			c-1.64-7.96-3-15.97-4.63-24.78c-2.21,1.36-4.29,2.49-6.22,3.85c-9.25,6.53-17.01,5.49-23.61-3.58c-2.21-3.04-4.05-2.8-6.49-0.65
			c-1.87,1.65-3.81,3.23-5.78,4.77c-4.73,3.71-9.87,5.77-15.69,2.78c-4.25-2.18-7.44-9.54-5.46-15.49
			c2.6-7.8,5.73-15.71,10.23-22.53c5.68-8.61,18.06-10.1,25.65-3.97c2.27,1.83,3.86,4.89,4.85,7.71c0.42,1.2-1.15,3.86-2.52,4.67
			c-1.01,0.6-3.24-0.55-4.76-1.27c-0.8-0.38-1.19-1.56-1.85-2.31c-3.21-3.62-5.37-3.78-8.72-0.28c-5.44,5.68-7.89,12.85-10.1,20.11
			C550.42,598.21,550.96,598.68,551.49,599.15z M620.85,556.91c0.57,0.21,1.14,0.43,1.71,0.64c4.2-9.9,8.39-19.81,12.59-29.71
			c-0.65-0.28-1.31-0.55-1.96-0.83C625.95,535.65,622.47,545.89,620.85,556.91z"/>
		<path d="M289.32,547.75c6.19-0.58,17.22-8.95,18.36-14.42c0.47-2.25,0.09-5.13-0.98-7.15c-3.18-6.02-8.21-9.88-15.09-11.18
			c-10.22-1.92-20.41-3.09-30.67-0.19c-1.71,0.48-3.65,0.37-5.46,0.22c-3.3-0.27-6.49-1.02-6.66-5.22
			c-0.16-4.04,1.34-7.46,5.51-8.47c22.33-5.4,42.4-0.9,59.14,15.05c12.77,12.17,11.47,27.19-3.05,37.18
			c-5.12,3.52-11.07,6.25-17.04,8.01c-7.02,2.08-9.58,5.87-10.34,13.08c-1.73,16.19-4.45,32.28-6.98,48.38
			c-1,6.34-5.72,9.17-11.13,7.22c-3.68-1.33-4.93-3.44-4.14-7.65c3.29-17.65,6.29-35.36,8.99-53.11c0.3-2-1.47-4.87-3.13-6.46
			c-1.97-1.89-5.14-2.48-7.26-4.26c-2.05-1.72-4.28-4.05-4.83-6.47c-0.44-1.98,0.91-5.29,2.57-6.47c1.1-0.78,4.34,0.82,6.25,1.97
			c2.21,1.32,4.03,3.31,6.02,5.01c1.37-2.65,3.36-5.16,3.99-7.97c1.48-6.65,2.28-13.44,3.42-20.17c0.94-5.54,4.21-8.64,8.34-8.06
			c4.14,0.58,7.67,5.12,7.15,10.02C291.54,533.7,290.34,540.7,289.32,547.75z"/>
		<path d="M362.57,588.58c-3.94,3.82-6.88,6.43-9.53,9.31c-3.95,4.28-7.36,9.1-11.58,13.08c-9.26,8.76-22.15,7.16-29.32-3.4
			c-1.66-2.45-2.68-5.33-4.19-7.91c-2.32-3.97-4.92-7.77-7.13-11.79c-0.88-1.61-1.7-3.77-1.3-5.37c0.26-1.05,2.77-2.14,4.28-2.14
			c3.43,0.01,4.21-2.22,5.61-4.64c2.8-4.82,5.44-10.14,9.49-13.74c9.62-8.58,25.96-2.96,29.31,9.42c1.11,4.1,0.21,7.34-3.39,9.49
			c-5.28,3.15-10.72,6.04-16.09,9.04c-1.6,0.89-3.35,1.57-4.78,2.67c-3.28,2.52-3.57,7.21-0.8,10.18c2.75,2.95,5.47,2.58,8.75-1.34
			c8.02-9.58,16.02-19.18,23.98-28.81c2.88-3.48,6.28-5.53,10.9-4.22c4.73,1.34,6.98,4.63,7.5,9.5c0.17,1.62,1.51,3.12,2.32,4.67
			c1.56-1.02,3.4-1.79,4.63-3.12c4.07-4.38,7.82-9.07,11.9-13.45c4.56-4.89,10.32-6.08,16.45-3.78c1.81,0.68,3.75,2.85,4.17,4.67
			c0.25,1.12-1.99,3.58-3.6,4.22c-7.86,3.13-13.24,8.65-17.16,15.97c-4.85,9.05-9.69,18.12-15.03,26.88
			c-1.2,1.96-5.01,4.25-6.57,3.65c-2.62-1-5.47-3.88-6.26-6.55c-1.2-4.04-0.61-8.58-0.99-12.9
			C363.91,595.55,363.3,592.96,362.57,588.58z M320.03,585c6.07-3.91,11.27-6.75,15.74-10.47c1.2-1,1.09-5.24-0.01-6.97
			c-1.86-2.92-4.88-1.58-6.69,0.65c-3.12,3.85-5.95,7.96-8.73,12.07C319.84,581.02,320.17,582.31,320.03,585z"/>
		<path d="M478.14,567.06c-1.24,3.15-2.57,5.46-3.01,7.93c-0.6,3.35-0.84,6.84-0.65,10.24c0.24,4.3,1.43,8.55,1.55,12.84
			c0.29,10.41-4.69,15.54-14.89,15.9c-8.35,0.3-15.41-6.32-16.22-15.08c-0.77-8.4,3.8-15.09,7.47-21.84
			c3.4-6.24,7.83-11.98,12.32-17.53c5.18-6.41,17.75-5.94,24.93,0.5c5.23,4.7,7.29,10.97,8.77,17.54c0.31,1.38,0.68,2.74,1.23,4.94
			c1.91-3.05,3.19-5.52,4.86-7.67c3.23-4.17,7.3-6.93,12.9-5.86c5.54,1.07,7.79,5.17,8.83,10.23c0.17,0.81,0.52,1.59,0.67,2.4
			c2.04,11,1.89,22.75,11.67,30.93c-5.85,2.92-13,0.36-16.52-5.86c-2.01-3.56-3.05-7.68-4.48-11.57c-0.58-1.56-0.85-3.26-1.63-4.7
			c-0.57-1.04-1.98-2.61-2.6-2.43c-1.18,0.33-2.6,1.56-2.96,2.72c-1.13,3.64-1.7,7.45-2.69,11.14c-1.28,4.77-3.67,8.66-9.17,9.25
			c-6.43,0.69-10.76-3.49-11.42-10.97c-0.71-8.12-1.22-16.27-2.09-24.37C484.56,571.5,482.99,567.76,478.14,567.06z M465.79,587.99
			c-0.18-0.05-0.35-0.11-0.53-0.16c0-0.66,0.17-1.39-0.03-1.98c-0.49-1.44-1.15-2.82-1.74-4.23c-1.02,1.13-2.54,2.09-2.98,3.41
			c-1.53,4.54-2.88,9.17-3.84,13.86c-0.27,1.32,1.08,2.96,1.68,4.46c1.32-1,3.35-1.73,3.84-3.04
			C463.71,596.33,464.64,592.12,465.79,587.99z"/>
		<path d="M420.48,621.9c-7.58,0.32-11.67-2.25-13.92-8.61c-1.4-3.95,0.17-5.9,4.26-5.13c1.95,0.37,4.01,1.82,5.72,1.45
			c3.19-0.7,6.84-1.71,8.99-3.89c1.22-1.23,0.5-5.34-0.54-7.62c-1.91-4.21-4.87-7.92-7.07-12.01c-6.28-11.69,1.13-27.6,14.11-30.55
			c4.21-0.96,7.75,0.14,9.7,4.09c1.87,3.78-0.57,6.25-3.4,8.37c-1.46,1.1-2.96,2.16-4.3,3.39c-5.37,4.95-6.31,10.22-2.77,16.58
			c1.61,2.89,3.67,5.54,5.53,8.29c8.57,12.71,2.93,24.46-12.33,25.62C423.15,621.98,421.81,621.9,420.48,621.9z"/>
	</g>
</g>
<g>
	<g>
		<path d="M1026,209c-26.81,0-53.14,0.07-79.46-0.09c-3.3-0.02-6.32,1.28-9.58,1.12c-3.16-0.16-6.33-0.03-9.49-0.03
			c-0.83,0-1.67,0.03-2.5-0.01c-2.26-0.09-2.04-0.1-2.01-2.99c0.06-6.48,2.96-12.06,5.36-17.79c1.37-3.27,4.45-5.16,6.67-7.74
			c1.62-1.88,3.71-2.93,5.9-3.88c4.34-1.88,9.45-1.68,14.49-0.87c4.63,0.74,8.17,3.46,12.44,5.09c0-9.1,0-18.22,0-27.61
			c-2.12-0.69-4.43-1.86-6.82-2.1c-2.56-0.25-4.9-1.76-7.55-1.16c-2.15-1.91-4.73-0.72-7.1-0.91c-2.65-0.21-5.36-0.3-7.99,0.01
			c-4.49,0.53-8.9,1.67-13.12,3.27c-4.48,1.71-9.07,3.31-12.75,6.64c-0.68,0.61-1.73,0.82-2.37,1.46c-3.06,3.03-6.82,5.33-9.17,9.1
			c-1.24,2-2.68,3.88-3.95,5.87c-2.92,4.59-5.26,9.52-6.54,14.77c-1,4.1-2.64,8.09-2.56,12.49c0.04,2.12-0.84,4.26-1.25,6.15
			c-2.03-0.28-3.89-0.75-5.76-0.76c-9.33-0.08-18.66-0.11-27.99,0.01c-2.86,0.04-5.72,0.67-8.59,0.92c-0.75,0.07-1.6-0.16-2.27-0.49
			c-0.36-0.18-0.68-0.92-0.63-1.36c0.47-3.62,1.08-7.22,1.56-10.83c0.56-4.2,2.19-8.09,3.38-12.1c1.94-6.54,5.05-12.6,8.48-18.47
			c1.82-3.11,3.58-6.42,6.07-8.93c3.5-3.53,6.16-7.7,10.3-10.83c5.2-3.93,10.3-7.95,15.79-11.49c5.5-3.54,11.35-6.26,17.48-8.5
			c4.23-1.55,8.65-2.4,12.94-3.73c3-0.93,6.31-0.97,9.5-1.19c2.65-0.18,5.33-0.12,7.99-0.02c11.9,0.45,23.24,3.08,34.36,7.53
			c7.6,3.04,14.63,7.02,21.09,11.68c5.57,4.01,11.38,8.28,14.93,14.58c6.5,6.06,9.71,14.22,13.58,21.88
			c1.99,3.94,2.97,8.44,4.25,12.74c1.11,3.74,1.38,7.64,2.74,11.34C1026.62,203.79,1026,206.33,1026,209z"/>
		<path d="M967.72,244.4c-4.88,2.97-9.25,4.97-13.88,6.15c-2.48,0.63-5.35,0.92-7.79,0.31c-3.39-0.84-6.71-1.99-9.86-3.95
			c-5.55-3.44-7.79-8.87-10.12-14.31c-1.09-2.54-1.38-5.42-2.09-8.13c-0.27-1.02-0.71-1.99-1.17-3.26c34.49,0,68.71,0,103.17,0
			c0.21,6.76-1.54,13.16-3.26,19.56c-1.73,6.45-4.56,12.45-7.76,18.26c-2.73,4.96-5.88,9.66-9.45,14.11
			c-2.46,3.07-5.02,6.02-7.87,8.69c-8.58,8.03-18.42,14.29-29.13,18.93c-4.6,2-9.72,3.12-14.71,4.32
			c-9.48,2.28-19.14,2.61-28.65,1.71c-8.61-0.81-17.12-2.85-25.33-6.24c-7.55-3.11-14.67-6.91-21.09-11.7
			c-5.52-4.13-10.95-8.56-15.07-14.44c-2.54-3.61-5.36-7.02-7.71-10.83c-4.74-7.67-7.81-13.46-9.91-20.89
			c-1.32-4.67-2.74-9.3-3.21-14.22c-0.22-2.33-0.95-4.65-0.74-7.27c14.89,0,29.79,0,44.67,0c1.2,6.05,1.92,12.13,3.88,17.95
			c2.06,6.08,5.04,11.64,8.81,16.85c5.38,7.41,11.91,13.44,20.3,17.17c4.4,1.96,9.02,3.27,13.89,3.98c3.21,0.47,6.39,0.67,9.6,0.89
			c2.32,0.16,4.4-0.65,6.59-1c2.03-0.33,4.08-0.49,6.11-0.82c3.49-0.57,6.59-1.64,9.76-3.12c2.46-1.15,3.22-2.98,3.26-5.21
			c0.12-6.66,0.09-13.32-0.01-19.99C968.94,246.89,968.27,245.89,967.72,244.4z"/>
		<path d="M963.05,342.83c0,3.71-1.53,7.81-3.96,11.9c-4.5,7.57-16.34,6.77-19.74-0.9c-1.84-4.16-3.73-8.48-3.27-13.1
			c0.61-6.08,2.22-11.86,7.52-15.87c2.79-2.11,7.91-2.6,11.18-0.51c3.67,2.34,6.27,5.56,7.36,10.37
			C962.69,337.11,962.91,339.43,963.05,342.83z M954,342.04c0-1.71-0.06-3.04,0.01-4.37c0.14-2.46-1.08-4.22-2.69-5.87
			c-1.13-1.15-2.31-1.17-3.39-0.18c-0.91,0.83-1.68,1.66-2.05,3.14c-1.19,4.76-1.32,8.64,0.09,13.65c0.52,1.86,1.44,3.21,3.37,3.57
			c1.85,0.35,2.35-1.53,3.49-2.36c0.18-0.13,0.01-0.7,0.18-0.89C954.93,346.58,953.54,343.99,954,342.04z"/>
		<path d="M863.21,341.71c-0.23,2.42-0.4,4.85-0.69,7.26c-0.51,4.18-3.34,7-6.4,9.22c-2.5,1.81-5.7,2.43-9.02,1.46
			c-5.16-1.5-7.45-5.46-9.08-10.04c-0.47-1.31-0.85-2.69-0.98-4.06c-0.17-1.81-0.05-3.65-0.04-5.47c0.03-2.93,2.36-10.47,4.19-12.69
			c1.41-1.71,3.06-3.02,5.53-3.48c2.8-0.52,5.44-0.65,8.03,0.41c2.62,1.07,4.85,3.02,6.1,5.35c1.27,2.38,2.53,5.07,2.17,8.07
			c-0.16,1.31-0.03,2.65-0.03,3.98C863.07,341.7,863.14,341.7,863.21,341.71z M846.15,348.65c0.72,0.72,1.51,1.58,2.37,2.35
			c1.88,1.7,3.12,1.38,4.5-0.93c2.36-3.95,2.24-8.3,1.87-12.57c-0.16-1.87-1.39-3.71-2.37-5.43c-0.81-1.42-2.4-1.45-3.71-0.38
			c-3.47,2.85-2.64,7.18-3.78,10.83C847.03,344.25,845.47,346.58,846.15,348.65z"/>
		<path d="M1029.76,324c3.89,1.19,2.52,4.7,4.24,6.58c0.06,3.98,1.47,7.69,2.62,11.39c1.1,3.52,1.4,7.28,3.3,10.59
			c0.64,1.11-0.01,2.67,0.96,4.1c0.95,1.38-0.53,3.23-2.34,3.31c-1.99,0.09-3.99,0.02-6.38,0.02c-0.52-2.16-1.07-4.4-1.66-6.85
			c-1.81,0-3.93,0-6.23,0c-0.4,1.65-0.67,3.53-1.35,5.24c-0.29,0.72-1.45,1.53-2.21,1.53c-1.84-0.02-3.67-0.49-5.43-0.77
			c-0.66-2.49,0.07-4.36,0.64-6.37c1.53-5.37,2.76-10.83,4.05-16.27c0.68-2.88,1.76-5.62,2.11-8.63c0.34-2.97,1.88-3.84,4.98-3.88
			C1028.23,323.99,1029.39,324,1029.76,324z M1028.81,345.91c0.9-3.5-0.81-6.55-1.42-9.78c-0.04,3.29-2.52,6.29-1.04,9.78
			C1027.1,345.91,1027.88,345.91,1028.81,345.91z"/>
		<path d="M913.83,359c-2.64,0-4.97-0.05-7.29,0.02c-1.38,0.04-2.53-0.86-2.44-1.83c0.27-3.05-1.22-4.46-4.62-4.96
			c-0.67,0.38-2.01,1.15-3.44,1.97c0,1.54,0,2.99,0,4.62c-3.06,0-5.96,0-8.94,0c1.21-5.72,2.57-11.29,4.04-16.78
			c1.32-4.93,2.91-9.78,3.87-14.81c0.31-1.61,2.11-3.13,3.71-3.21c1.32-0.06,2.66-0.04,3.98-0.01c1.33,0.03,1.98,0.84,2.3,2.06
			c1.65,6.29,3.32,12.57,5,18.85C911.23,349.5,912.49,354.09,913.83,359z M900.54,336.3c-0.72,1.47-1.29,2.26-1.5,3.14
			c-0.26,1.08,0.15,2.5-0.41,3.3c-1.73,2.49,0.48,2.55,1.44,3.43c1.51-0.9,2.61-2.23,1.83-3.32
			C900.6,341.04,901.36,339.09,900.54,336.3z"/>
		<path d="M867,358.84c0-11.64,0-22.93,0.01-34.22c0-0.13,0.17-0.26,0.42-0.62c4.46,0,9.08-0.13,13.69,0.07
			c1.64,0.07,3.4,0.66,4.83,1.49c1.68,0.97,2.56,2.81,3.02,4.67c0.58,2.36,1.85,4.51,0.29,7.26c-0.94,1.66-0.82,4.3-2.67,5.27
			c-2.29,1.19-4.59,2.96-7.53,2.26c-0.47-0.11-0.99-0.02-1.59-0.02c-0.73,0.81-1.5,1.67-2.46,2.74c0,2.5,0.04,5.32-0.01,8.13
			c-0.05,2.41-0.73,3.08-3.21,3.12C870.18,359.01,868.57,358.89,867,358.84z M875.14,331.18c0,2.42,0,4.52,0,6.55
			c2.35,0.98,4.04-0.36,5.85-1.22C881.45,331.04,880.23,330.42,875.14,331.18z"/>
		<path d="M979,349.46c2.93,1.4,5.02,2.79,7.77,2.65c1.8-0.1,2.66-1.04,3.67-2.07c0.93-0.96,0.99-2.11,0.03-3.02
			c-1.26-1.2-2.28-2.59-4.11-3.31c-1.71-0.67-3.11-2.19-4.56-3.43c-4.95-4.25-3.43-13.08,2.8-15.43c3.08-1.17,5.97-3.02,9.31-0.84
			c3.18-0.25,3.4,2.42,4.01,4.39c0.42,1.34,0.08,2.91,0.08,4.87c-1.33-0.52-2.49-0.66-3.18-1.3c-1.27-1.17-2.71-0.81-4.12-0.98
			c-1.45-0.18-2.37,0.73-2.61,1.73c-0.32,1.35-0.51,3.05,1.1,3.97c1.47,0.84,3.05,1.5,4.52,2.34c2.53,1.45,4.2,3.32,5.5,6.23
			c1.78,4.01-0.09,6.98-1.77,9.56c-3.09,4.75-8.28,5.91-13.7,5.09c-1.4-0.21-2.61-1.68-3.9-2.57c-1.4-0.96-0.72-2.4-0.82-3.65
			C978.93,352.55,979,351.41,979,349.46z"/>
		<path d="M934,332c-1.09,0-2,0.28-2.36-0.05c-1.49-1.34-2.6-0.58-4.27-0.16c-2.37,0.61-1.96,2.82-3.37,3.75
			c0.12,3.56-2.47,7.11,0,10.67c-0.55,2.63,1.49,3.85,3.01,5.23c1.82,1.67,3.59,0.1,5.22-0.55c2.93,1.8,1.35,4.48,1.81,6.61
			c-5.08,3.65-9.36,3.31-13.54-0.44c-4.01-3.6-5.83-7.94-5.49-13.24c0.21-3.37-0.3-6.71,0.89-10.12c1.78-5.11,4.48-8.57,9.94-10.3
			c2.78-0.88,4.54,0.96,6.83,0.76c0.52,1.63,1.67,3.07,1.36,4.95C933.89,329.92,934,330.76,934,332z"/>
		<path d="M834,350.24c0,2.59,0.04,4.07-0.01,5.55c-0.08,2.48-1.74,4.04-4.25,4.22c-6.66,0.48-11.4-3.32-13.59-10.71
			c-0.78-2.64-1.7-5.53-1.19-8.55c0.92-5.52,1.67-11.12,6.6-14.75c2.25-1.65,4.66-3.52,7.73-2.96c2.11,0.39,4.36,0.9,4.94,3.62
			c0.1,0.49,0.72,0.62,0.25,1.47c-0.57,1.04-0.51,2.43-0.8,4.07c-0.8-0.42-1.39-0.89-2.06-1.07c-2.58-0.7-4.62,0.48-6.16,2.8
			c-1.67,2.5-1.45,5.19-1.46,7.91c-0.01,4.97,0,4.97,3.21,9.92C829.31,352.29,831.46,352.26,834,350.24z"/>
		<path d="M1049.22,351.98c0.2,0.08,1.33,0.31,2.14,0.94c2.07,1.62,2.05,1.86,0.81,4.4c-1.18,2.42-2.4,3.18-4.25,2.67
			c-1.34-0.37-2.86-2.45-2.92-3.98C1044.87,352.83,1045.52,352.05,1049.22,351.98z"/>
		<path d="M1003,355.44c0.01-2.73,0.68-3.41,3.38-3.44c2.27-0.02,4.49,1.56,4.62,3.28c0.16,2.14-2.5,4.84-4.66,4.72
			C1004.6,359.91,1002.99,357.71,1003,355.44z"/>
	</g>
</g>
<g>
	<g>
		<path d="M977.61,527.6c-0.93,65.54-52.76,118.08-119.04,117.86c-65.79-0.22-118.81-54.02-118.22-118.75
			c0.59-65.63,54.8-119.38,119.36-118.35C925.5,409.41,978.49,463,977.61,527.6z M787.01,502.97c-18.55-0.08-29.42,12.86-27.1,28.65
			c1.56,10.61,10.17,18.63,21.71,20.22c8.85,1.21,20.56-5.27,24.15-13.68c0.43-1.01-0.71-3.89-1.31-3.94
			c-3.17-0.29-6.44-1.03-8.94,2.5c-2.95,4.16-7.49,6.07-12.62,5.75c-6.97-0.43-12.67-5.58-13.95-12.21
			c-1.3-6.72,1.76-13.11,7.81-16.3c6.42-3.39,12.73-2.07,18.19,3.11c1.98,1.88,4.86,3.52,7.49,3.81c3.91,0.42,4.97-1.94,2.85-5.33
			C800.37,507.67,793.44,503.15,787.01,502.97z M929.17,532.34c0.07-11.25-8.13-19.77-19.21-19.97
			c-10.74-0.19-19.78,8.66-19.94,19.51c-0.16,10.56,8.96,19.97,19.49,20.11C920.22,552.14,929.1,543.27,929.17,532.34z
			 M860.12,535.76c-0.02,0-0.04,0-0.06,0c0-4.33,0.02-8.67,0-13c-0.02-4.1-1.82-7.51-5.74-8.4c-4.74-1.08-9.9-2.07-14.55-1.23
			c-3.59,0.65-6.84,3.96-9.88,6.52c-0.92,0.77-1.31,3.42-0.68,4.42c0.6,0.97,3.04,1.57,4.3,1.17c2.19-0.69,3.97-2.77,6.17-3.35
			c2.82-0.76,5.89-0.84,8.83-0.69c0.65,0.03,1.83,3.22,1.69,3.31c-2.05,1.34-4.19,2.67-6.5,3.47c-3.27,1.12-6.89,1.36-10.01,2.76
			c-5.14,2.3-7.17,7.79-5.63,13.53c1.26,4.7,5.59,7.51,11.21,7.08c1.97-0.15,3.93-0.63,5.85-1.13c2.72-0.71,4.95-1.37,7.67,1.06
			c3.02,2.69,7.31,0.05,7.34-4C860.14,543.42,860.12,539.59,860.12,535.76z M876.48,517.51c-0.37-0.71-0.58-1.71-1.01-1.82
			c-2.21-0.57-4.53-1.33-6.7-1.08c-0.74,0.08-1.66,2.87-1.69,4.44c-0.16,8.99,0.05,17.99-0.14,26.97c-0.08,3.62,0.76,5.72,4.84,5.75
			c4,0.03,4.52-2.18,4.4-5.46c-0.16-4.66-0.16-9.33,0.12-13.98c0.37-6.07,3.08-9.05,8.25-10.42c1.61-0.43,3.72-1.59,4.21-2.93
			c0.59-1.61,0.3-4.93-0.67-5.42c-1.51-0.77-4-0.06-5.9,0.56C880.51,514.66,879.06,515.93,876.48,517.51z M821.97,527.44
			c-0.01,0-0.01,0-0.02,0c0-6.65-0.14-13.3,0.06-19.94c0.11-3.75-1.48-4.89-5.03-4.97c-3.78-0.08-4.35,1.86-4.33,4.96
			c0.07,12.96,0.08,25.92-0.03,38.88c-0.03,3.34,0.8,5.46,4.59,5.39c3.61-0.06,4.9-1.88,4.81-5.39
			C821.85,540.07,821.97,533.76,821.97,527.44z M956.26,489.74c-2.2-1.57-3.73-2.87-5.46-3.81c-0.82-0.45-2.48-0.67-2.98-0.19
			c-6.78,6.59-13.52,13.22-19.93,20.16c-0.67,0.72,0.37,3.92,1.5,5.13c0.94,1.01,4.04,1.65,4.75,0.96
			C941.63,504.8,948.83,497.31,956.26,489.74z M908.96,492.05c0,2.65,0.11,5.3-0.03,7.94c-0.18,3.39,1.71,4.28,4.62,4.29
			c3,0.01,4.61-1.09,4.5-4.4c-0.16-4.96-0.17-9.93,0.01-14.89c0.12-3.24-1.38-4.64-4.37-4.58c-2.95,0.06-5.16,0.99-4.79,4.7
			C909.14,487.4,908.95,489.74,908.96,492.05z M949.62,521.87c0-0.01,0-0.01,0-0.02c-2.65,0-5.3,0.09-7.94-0.02
			c-2.81-0.12-3.79,1.19-3.82,3.87c-0.03,2.6,0.22,4.65,3.55,4.63c5.46-0.04,10.92,0,16.38,0.02c2.79,0.01,4.26-1.12,4.28-4.14
			c0.02-3.2-1.34-4.51-4.5-4.36C954.92,521.98,952.27,521.87,949.62,521.87z"/>
		<path d="M909.97,521.71c5.85,0.11,10.21,4.68,10.11,10.61c-0.09,5.66-5.06,10.51-10.57,10.34c-5.45-0.17-10.48-5.42-10.34-10.8
			C899.31,526.29,904.3,521.6,909.97,521.71z"/>
		<path d="M842.15,545.01c-3.02-0.01-5.13-1.05-5.14-4.52c-0.01-4.25,4.69-7.32,11.29-6.9c0.94,0.06,2.45,2.01,2.51,3.15
			C851.04,541.22,846.81,545.04,842.15,545.01z"/>
	</g>
</g>
</svg>
