<svg xmlns="http://www.w3.org/2000/svg" width="350" height="350" viewBox="0 0 350 350">
  <path fill="#FFF" d="M179.91,203.01 C182.3745,202.81625 183.06115,204.376325 183.529323,206.005172 L183.617627,206.320838 C183.718444,206.689062 183.81325,207.05525 183.92,207.4 C184.34,208.74 184,210.31 184,212.27 C182.67,211.75 181.51,211.61 180.82,210.97 C179.55,209.8 178.11,210.16 176.7,209.99 C175.25,209.81 174.33,210.72 174.09,211.72 C173.77,213.07 173.58,214.77 175.19,215.69 C176.66,216.53 178.24,217.19 179.71,218.03 C182.24,219.48 183.91,221.35 185.21,224.26 C186.99,228.27 185.12,231.24 183.44,233.82 C180.35,238.57 175.16,239.73 169.74,238.91 C168.34,238.7 167.13,237.23 165.84,236.34 C164.888,235.6872 164.897792,234.812448 164.9701,233.926413 L164.996753,233.61357 C165.023072,233.300944 165.044,232.99 165.02,232.69 C164.93,231.55 165,230.41 165,228.46 C167.93,229.86 170.02,231.25 172.77,231.11 C174.57,231.01 175.43,230.07 176.44,229.04 C177.37,228.08 177.43,226.93 176.47,226.02 C175.21,224.82 174.19,223.43 172.36,222.71 C170.65,222.04 169.25,220.52 167.8,219.28 C162.85,215.03 164.37,206.2 170.6,203.85 C173.68,202.68 176.57,200.83 179.91,203.01 Z M235.22,230.98 C235.42,231.06 236.55,231.29 237.36,231.92 C239.43,233.54 239.41,233.78 238.17,236.32 C236.99,238.74 235.77,239.5 233.92,238.99 C232.58,238.62 231.06,236.54 231,235.01 C230.87,231.83 231.52,231.05 235.22,230.98 Z M40.75,203.32 C43.37,204.39 45.6,206.34 46.85,208.67 C48.12,211.05 49.38,213.74 49.02,216.74 C48.86,218.05 48.99,219.39 48.99,220.72 C49.07,220.7 49.14,220.7 49.21,220.71 C48.98,223.13 48.81,225.56 48.52,227.97 C48.01,232.15 45.18,234.97 42.12,237.19 C39.62,239 36.42,239.62 33.1,238.65 C27.94,237.15 25.65,233.19 24.02,228.61 C23.55,227.3 23.17,225.92 23.04,224.55 C22.87,222.74 22.99,220.9 23,219.08 C23.03,216.15 25.36,208.61 27.19,206.39 C28.6,204.68 30.25,203.37 32.72,202.91 C35.52,202.39 38.16,202.26 40.75,203.32 Z M118.67,203.16 C119.19,204.79 120.34,206.23 120.03,208.11 C119.89,208.92 120,209.76 120,211 C118.91,211 118,211.28 117.64,210.95 C116.15,209.61 115.04,210.37 113.37,210.79 C111,211.4 111.41,213.61 110,214.54 C110.12,218.1 107.53,221.65 110,225.21 C109.535938,227.429062 110.915732,228.644326 112.271278,229.798855 L112.571352,230.0548 C112.72043,230.182656 112.8675,230.310625 113.01,230.44 C114.83,232.11 116.6,230.54 118.23,229.89 C120.080526,231.026842 120.13205,232.514709 120.034724,233.993339 L120.008246,234.362595 C119.952909,235.099889 119.894737,235.827368 120.04,236.5 C114.96,240.15 110.68,239.81 106.5,236.06 C102.49,232.46 100.67,228.12 101.01,222.82 C101.22,219.45 100.71,216.11 101.9,212.7 C103.68,207.59 106.38,204.13 111.84,202.4 C114.62,201.52 116.38,203.36 118.67,203.16 Z M15.29,202.04 C17.4,202.43 19.65,202.94 20.23,205.66 C20.2535294,205.775294 20.3058478,205.870657 20.3659821,205.960159 L20.459424,206.091773 C20.6318685,206.331453 20.7841176,206.58 20.48,207.13 C19.91,208.17 19.97,209.56 19.68,211.2 C18.88,210.78 18.29,210.31 17.62,210.13 C15.04,209.43 13,210.61 11.46,212.93 C9.79,215.43 10.01,218.12 10,220.84 L9.99927893,221.811027 C10.0069713,225.834094 10.2239535,226.155349 13.21,230.76 C15.31,231.29 17.46,231.26 20,229.24 C20,231.83 20.04,233.31 19.99,234.79 C19.91,237.27 18.25,238.83 15.74,239.01 C9.08,239.49 4.34,235.69 2.15,228.3 C1.37,225.66 0.45,222.77 0.96,219.75 L1.07939344,219.029715 C1.11910824,218.789581 1.15885921,218.549464 1.19900386,218.309533 L1.32097641,217.590466 C2.14676749,212.802647 3.27304348,208.156522 7.56,205 C9.81,203.35 12.22,201.48 15.29,202.04 Z M215.571716,202.999514 L215.76,203 L215.76,203 C218.021628,203.69186 218.505268,205.167929 218.851891,206.651936 L218.93329,207.007853 C219.14782,207.955251 219.36,208.880465 220,209.58 C220.06,213.56 221.47,217.27 222.62,220.97 C223.72,224.49 224.02,228.25 225.92,231.56 C226.56,232.67 225.91,234.23 226.88,235.66 C227.83,237.04 226.35,238.89 224.54,238.97 C222.55,239.06 220.55,238.99 218.16,238.99 C217.64,236.83 217.09,234.59 216.5,232.14 L210.27,232.14 L210.27,232.14 C209.87,233.79 209.6,235.67 208.92,237.38 C208.63,238.1 207.47,238.91 206.71,238.91 C204.87,238.89 203.04,238.42 201.28,238.14 C200.62,235.65 201.35,233.78 201.92,231.77 C203.45,226.4 204.68,220.94 205.97,215.5 C206.65,212.62 207.73,209.88 208.08,206.87 C208.42,203.9 209.96,203.03 213.06,202.99 C214.074,202.99 215.080489,202.997511 215.571716,202.999514 Z M140.78,203.35 C144.45,205.69 147.05,208.91 148.14,213.72 C148.69,216.11 148.91,218.43 149.05,221.83 C149.05,225.54 147.52,229.64 145.09,233.73 C140.59,241.3 128.75,240.5 125.35,232.83 C123.51,228.67 121.62,224.35 122.08,219.73 C122.69,213.65 124.3,207.87 129.6,203.86 C132.39,201.75 137.51,201.26 140.78,203.35 Z M192.38,231 C194.65,230.98 196.87,232.56 197,234.28 C197.16,236.42 194.5,239.12 192.34,239 C190.6,238.91 188.99,236.71 188.999954,234.44 C189.01,231.71 189.68,231.03 192.38,231 Z M88.7,203.01 C90.03,203.04 90.68,203.85 91,205.07 C92.65,211.36 94.32,217.64 96,223.92 C97.23,228.5 98.49,233.09 99.83,238 C97.19,238 94.86,237.95 92.54,238.02 C91.16,238.06 90.01,237.16 90.1,236.19 C90.37,233.14 88.88,231.73 85.48,231.23 C84.81,231.61 83.47,232.38 82.04,233.2 L82.04,237.82 L82.04,237.82 L73.1,237.82 L73.1,237.82 C74.31,232.1 75.67,226.53 77.14,221.04 C78.46,216.11 80.05,211.26 81.01,206.23 C81.32,204.62 83.12,203.1 84.72,203.02 C86.04,202.96 87.38,202.98 88.7,203.01 Z M67.12,203.07 C68.76,203.14 70.52,203.73 71.95,204.56 C73.63,205.53 74.51,207.37 74.97,209.23 C75.0822581,209.686774 75.2203642,210.135682 75.3587966,210.582595 L75.4963925,211.029061 C76.0170135,212.739636 76.4174194,214.449677 75.26,216.49 C74.32,218.15 74.44,220.79 72.59,221.76 C72.1951724,221.965172 71.8000476,222.187586 71.4013965,222.411609 L70.9211161,222.680209 C69.1523662,223.660571 67.2903448,224.551034 65.06,224.02 C64.59,223.91 64.07,224 63.47,224 C62.74,224.81 61.97,225.67 61.01,226.74 C61.01,229.24 61.05,232.06 61,234.87 C60.95,237.28 60.27,237.95 57.79,237.99 C56.18,238.01 54.57,237.89 53,237.84 C53,235.253333 53,232.683951 53.0001097,230.128011 L53.0008779,222.49668 C53.0019753,216.164444 53.0044444,209.892222 53.01,203.62 C53.01,203.49 53.18,203.36 53.43,203 C57.89,203 62.51,202.87 67.12,203.07 Z M34.81,210.69 C32.4357895,212.64 32.0745983,215.282853 31.7180886,217.926692 L31.6349861,218.536511 C31.4935734,219.551856 31.33,220.559474 31.03,221.52 C33.03,223.25 31.47,225.58 32.15,227.65 C32.87,228.37 33.66,229.23 34.52,230 C36.4,231.7 37.64,231.38 39.02,229.07 C41.38,225.12 41.26,220.77 40.89,216.5 C40.73,214.63 39.5,212.79 38.52,211.07 C37.71,209.65 36.12,209.62 34.81,210.69 Z M133.93,210.62 C133.02,211.45 132.25,212.28 131.88,213.76 C130.69,218.52 130.56,222.4 131.97,227.41 C132.49,229.27 133.41,230.62 135.34,230.98 C137.19,231.33 137.69,229.45 138.83,228.62 C139.01,228.49 138.84,227.92 139.01,227.73 C140.93,225.58 139.54,222.99 140,221.04 C140,219.33 139.94,218 140.01,216.67 C140.15,214.21 138.93,212.45 137.32,210.8 C136.19,209.65 135.01,209.63 133.93,210.62 Z M86.54,215.3 C85.82,216.77 85.25,217.56 85.04,218.44 C84.78,219.52 85.19,220.94 84.63,221.74 C83.4063415,223.50122 84.1538548,224.046716 85.0359604,224.526564 L85.2197831,224.625284 C85.5273468,224.789512 85.8358537,224.955366 86.07,225.17 C87.58,224.27 88.68,222.94 87.9,221.85 C86.6,220.04 87.36,218.09 86.54,215.3 Z M213.39,215.13 C213.35,218.42 210.87,221.42 212.35,224.91 L214.81,224.91 L214.81,224.91 C215.388571,222.66 214.88852,220.595969 214.295485,218.550536 L214.095714,217.869184 C213.828367,216.96102 213.564286,216.052857 213.39,215.13 Z M61.14,210.18 L61.14,216.73 L61.14,216.73 C63.49,217.71 65.18,216.37 66.99,215.51 C67.45,210.04 66.23,209.42 61.14,210.18 Z M72.76,100.2 C73.96,106.25 74.68,112.33 76.64,118.15 C78.7,124.23 81.68,129.79 85.45,135 C90.83,142.41 97.36,148.44 105.75,152.17 C110.15,154.13 114.77,155.44 119.64,156.15 C122.85,156.62 126.03,156.82 129.24,157.04 C130.632,157.136 131.9376,156.8828 133.2324,156.58928 L134.09483,156.391016 C134.669822,156.259378 135.246,156.133333 135.83,156.04 C137.86,155.71 139.91,155.55 141.94,155.22 C145.43,154.65 148.53,153.58 151.7,152.1 C154.16,150.95 154.92,149.12 154.96,146.89 C155.08,140.23 155.05,133.57 154.95,126.9 C154.94,125.89 154.27,124.89 153.72,123.4 C148.84,126.37 144.47,128.37 139.84,129.55 C137.36,130.18 134.49,130.47 132.05,129.86 C128.66,129.02 125.34,127.87 122.19,125.91 C117.181463,122.80561 114.868578,118.080571 112.752539,113.190071 L112.410728,112.395796 C112.297103,112.130708 112.183659,111.865366 112.07,111.6 C110.98,109.06 110.69,106.18 109.98,103.47 C109.71,102.45 109.27,101.48 108.81,100.21 L211.98,100.21 L211.98,100.21 C212.19,106.97 210.44,113.37 208.72,119.77 C206.99,126.22 204.16,132.22 200.96,138.03 C198.23,142.99 195.08,147.69 191.51,152.14 C189.05,155.21 186.49,158.16 183.64,160.83 C175.06,168.86 165.22,175.12 154.51,179.76 C149.91,181.76 144.79,182.88 139.8,184.08 C130.32,186.36 120.66,186.69 111.15,185.79 C102.54,184.98 94.03,182.94 85.82,179.55 C78.27,176.44 71.15,172.64 64.73,167.85 C59.21,163.72 53.78,159.29 49.66,153.41 C47.12,149.8 44.3,146.39 41.95,142.58 C37.21,134.91 34.14,129.12 32.04,121.69 L31.7915845,120.814763 L31.7915845,120.814763 L31.2938745,119.065168 C30.2208984,115.273555 29.211875,111.4675 28.83,107.47 C28.61,105.14 27.88,102.82 28.09,100.2 L72.76,100.2 L72.76,100.2 Z M120.9,1.02 C132.8,1.47 144.14,4.1 155.26,8.55 C162.86,11.59 169.89,15.57 176.35,20.23 C181.92,24.24 187.73,28.51 191.28,34.81 C196.411579,39.5942105 199.492604,45.6872853 202.466689,51.8098834 L203.35765,53.6462691 L203.35765,53.6462691 L203.953818,54.8677198 C204.253061,55.47741 204.554474,56.0852632 204.86,56.69 C206.264706,59.4711765 207.166159,62.5313841 208.025113,65.6033157 L208.453181,67.139021 C208.667578,67.9061246 208.884118,68.6711765 209.11,69.43 C210.22,73.17 210.49,77.07 211.85,80.77 C212.62,82.79 212,85.33 212,88 C185.19,88 158.86,88.07 132.54,87.91 C129.24,87.89 126.22,89.19 122.96,89.03 C119.8,88.87 116.63,89 113.47,89 C112.64,89 111.8,89.03 110.97,88.99 C108.71,88.9 108.93,88.89 108.96,86 C109.00875,80.735 110.932344,76.0641406 112.939282,71.4242261 L113.403086,70.3537695 C113.712188,69.6401562 114.02,68.92625 114.32,68.21 C115.119167,66.3025 116.500208,64.8645833 117.952992,63.4853646 L118.891787,62.6027669 C119.62184,61.9163021 120.3425,61.2225 120.99,60.47 C122.61,58.59 124.7,57.54 126.89,56.59 C131.23,54.71 136.34,54.91 141.38,55.72 C146.01,56.46 149.55,59.18 153.82,60.81 L153.82,33.2 L153.82,33.2 C151.7,32.51 149.39,31.34 147,31.1 C146.109565,31.0130435 145.245747,30.7736484 144.386241,30.5236278 L143.742073,30.336336 C142.346616,29.9358223 140.947826,29.6008696 139.45,29.94 C138.088333,28.7303333 136.554189,28.7641111 135.01015,28.9032474 L134.52242,28.94936 C133.7909,29.0198 133.061,29.087 132.35,29.03 C129.7,28.82 126.99,28.73 124.36,29.04 C119.87,29.57 115.46,30.71 111.24,32.31 C106.76,34.02 102.17,35.62 98.49,38.95 C97.81,39.56 96.76,39.77 96.12,40.41 C93.06,43.44 89.3,45.74 86.95,49.51 C85.71,51.51 84.27,53.39 83,55.38 C80.08,59.97 77.74,64.9 76.46,70.15 C75.46,74.25 73.82,78.24 73.9,82.64 C73.94,84.76 73.06,86.9 72.65,88.79 C70.62,88.51 68.76,88.04 66.89,88.03 C57.56,87.95 48.23,87.92 38.9,88.04 C37.47,88.06 36.04,88.2275 34.60875,88.42125 L32.89057,88.65859 C32.0311,88.7758 31.171,88.885 30.31,88.96 C29.56,89.03 28.71,88.8 28.04,88.47 C27.68,88.29 27.36,87.55 27.41,87.11 C27.88,83.49 28.49,79.89 28.97,76.28 C29.53,72.08 31.16,68.19 32.35,64.18 C34.29,57.64 37.4,51.58 40.83,45.71 C42.65,42.6 44.41,39.29 46.9,36.78 C47.95,35.721 48.9244,34.6044 49.88584,33.47556 L50.84528,32.34432 C52.7648,30.0804 54.716,27.828 57.2,25.95 C62.4,22.02 67.5,18 72.99,14.46 C78.49,10.92 84.34,8.2 90.47,5.96 C94.7,4.41 99.12,3.56 103.41,2.23 C106.41,1.3 109.72,1.26 112.91,1.04 C115.56,0.86 118.24,0.92 120.9,1.02 Z" transform="translate(55 55)"/>
</svg>
